{
  "dimension": 2,
  "variables": [
    "Eta",
    "Pt"
  ],
  "binning": {
    "x": [
      -2.5,
      -2.0,
      -1.566,
      -1.444,
      -1.0,
      -0.5,
      0.0,
      0.5,
      1.0,
      1.444,
      1.566,
      2.0,
      2.5
    ],
    "y": [
      20.0,
      45.0,
      75.0,
      100.0,
      500.0
    ]
  },
  "data": [
    {
      "bin": [
        -2.5,
        -2.0
      ],
      "values": [
        {
          "bin": [
            20.0,
            45.0
          ],
          "value": 0.9774820804595947,
          "error_low": 0.007579150216755907,
          "error_high": 0.007579150216755907
        },
        {
          "bin": [
            45.0,
            75.0
          ],
          "value": 0.9836734533309937,
          "error_low": 0.0037067769293688633,
          "error_high": 0.0037067769293688633
        },
        {
          "bin": [
            75.0,
            100.0
          ],
          "value": 0.9969512224197388,
          "error_low": 0.015039277019256865,
          "error_high": 0.015039277019256865
        },
        {
          "bin": [
            100.0,
            500.0
          ],
          "value": 0.9899091720581055,
          "error_low": 0.009626026250423273,
          "error_high": 0.009626026250423273
        }
      ]
    },
    {
      "bin": [
        -2.0,
        -1.566
      ],
      "values": [
        {
          "bin": [
            20.0,
            45.0
          ],
          "value": 0.9816138744354248,
          "error_low": 0.0026028685623240367,
          "error_high": 0.0026028685623240367
        },
        {
          "bin": [
            45.0,
            75.0
          ],
          "value": 0.9817073345184326,
          "error_low": 0.0038678380425920763,
          "error_high": 0.0038678380425920763
        },
        {
          "bin": [
            75.0,
            100.0
          ],
          "value": 0.9969543218612671,
          "error_low": 0.007798117510526513,
          "error_high": 0.007798117510526513
        },
        {
          "bin": [
            100.0,
            500.0
          ],
          "value": 0.9898887872695923,
          "error_low": 0.004849172419931973,
          "error_high": 0.004849172419931973
        }
      ]
    },
    {
      "bin": [
        -1.566,
        -1.444
      ],
      "values": [
        {
          "bin": [
            20.0,
            45.0
          ],
          "value": 0.9483516216278076,
          "error_low": 0.013935198081327984,
          "error_high": 0.013935198081327984
        },
        {
          "bin": [
            45.0,
            75.0
          ],
          "value": 0.9706190824508667,
          "error_low": 0.013926947179863827,
          "error_high": 0.013926947179863827
        },
        {
          "bin": [
            75.0,
            100.0
          ],
          "value": 1.0032292604446411,
          "error_low": 0.040819128580965675,
          "error_high": 0.040819128580965675
        },
        {
          "bin": [
            100.0,
            500.0
          ],
          "value": 1.0095949172973633,
          "error_low": 0.0491215609104829,
          "error_high": 0.0491215609104829
        }
      ]
    },
    {
      "bin": [
        -1.444,
        -1.0
      ],
      "values": [
        {
          "bin": [
            20.0,
            45.0
          ],
          "value": 0.9692623019218445,
          "error_low": 0.005024120796293232,
          "error_high": 0.005024120796293232
        },
        {
          "bin": [
            45.0,
            75.0
          ],
          "value": 0.9755351543426514,
          "error_low": 0.004374809905436574,
          "error_high": 0.004374809905436574
        },
        {
          "bin": [
            75.0,
            100.0
          ],
          "value": 0.9959016442298889,
          "error_low": 0.007870026381012925,
          "error_high": 0.007870026381012925
        },
        {
          "bin": [
            100.0,
            500.0
          ],
          "value": 0.9847250580787659,
          "error_low": 0.006277407334998962,
          "error_high": 0.006277407334998962
        }
      ]
    },
    {
      "bin": [
        -1.0,
        -0.5
      ],
      "values": [
        {
          "bin": [
            20.0,
            45.0
          ],
          "value": 0.9765545129776001,
          "error_low": 0.004786138530432075,
          "error_high": 0.004786138530432075
        },
        {
          "bin": [
            45.0,
            75.0
          ],
          "value": 0.9796954393386841,
          "error_low": 0.0026376408237088977,
          "error_high": 0.0026376408237088977
        },
        {
          "bin": [
            75.0,
            100.0
          ],
          "value": 0.9918946027755737,
          "error_low": 0.00248175252561619,
          "error_high": 0.00248175252561619
        },
        {
          "bin": [
            100.0,
            500.0
          ],
          "value": 0.9878910183906555,
          "error_low": 0.004943470722064944,
          "error_high": 0.004943470722064944
        }
      ]
    },
    {
      "bin": [
        -0.5,
        0.0
      ],
      "values": [
        {
          "bin": [
            20.0,
            45.0
          ],
          "value": 0.9703779220581055,
          "error_low": 0.006817406266799283,
          "error_high": 0.006817406266799283
        },
        {
          "bin": [
            45.0,
            75.0
          ],
          "value": 0.9796541333198547,
          "error_low": 0.0026430073360665237,
          "error_high": 0.0026430073360665237
        },
        {
          "bin": [
            75.0,
            100.0
          ],
          "value": 0.9919028282165527,
          "error_low": 0.003920023629764595,
          "error_high": 0.003920023629764595
        },
        {
          "bin": [
            100.0,
            500.0
          ],
          "value": 0.9939332604408264,
          "error_low": 0.0017513152756004832,
          "error_high": 0.0017513152756004832
        }
      ]
    },
    {
      "bin": [
        0.0,
        0.5
      ],
      "values": [
        {
          "bin": [
            20.0,
            45.0
          ],
          "value": 0.9703476428985596,
          "error_low": 0.006817406266799283,
          "error_high": 0.006817406266799283
        },
        {
          "bin": [
            45.0,
            75.0
          ],
          "value": 0.9776195287704468,
          "error_low": 0.0026430073360665237,
          "error_high": 0.0026430073360665237
        },
        {
          "bin": [
            75.0,
            100.0
          ],
          "value": 0.9919028282165527,
          "error_low": 0.003920023629764595,
          "error_high": 0.003920023629764595
        },
        {
          "bin": [
            100.0,
            500.0
          ],
          "value": 0.9939332604408264,
          "error_low": 0.0017513152756004832,
          "error_high": 0.0017513152756004832
        }
      ]
    },
    {
      "bin": [
        0.5,
        1.0
      ],
      "values": [
        {
          "bin": [
            20.0,
            45.0
          ],
          "value": 0.9724208116531372,
          "error_low": 0.004786138530432075,
          "error_high": 0.004786138530432075
        },
        {
          "bin": [
            45.0,
            75.0
          ],
          "value": 0.9786801934242249,
          "error_low": 0.0026376408237088977,
          "error_high": 0.0026376408237088977
        },
        {
          "bin": [
            75.0,
            100.0
          ],
          "value": 0.9918946027755737,
          "error_low": 0.00248175252561619,
          "error_high": 0.00248175252561619
        },
        {
          "bin": [
            100.0,
            500.0
          ],
          "value": 0.9878910183906555,
          "error_low": 0.004943470722064944,
          "error_high": 0.004943470722064944
        }
      ]
    },
    {
      "bin": [
        1.0,
        1.444
      ],
      "values": [
        {
          "bin": [
            20.0,
            45.0
          ],
          "value": 0.9699169993400574,
          "error_low": 0.005024120796293232,
          "error_high": 0.005024120796293232
        },
        {
          "bin": [
            45.0,
            75.0
          ],
          "value": 0.9773662686347961,
          "error_low": 0.004374809905436574,
          "error_high": 0.004374809905436574
        },
        {
          "bin": [
            75.0,
            100.0
          ],
          "value": 0.9959016442298889,
          "error_low": 0.007870026381012925,
          "error_high": 0.007870026381012925
        },
        {
          "bin": [
            100.0,
            500.0
          ],
          "value": 0.9847250580787659,
          "error_low": 0.006277407334998962,
          "error_high": 0.006277407334998962
        }
      ]
    },
    {
      "bin": [
        1.444,
        1.566
      ],
      "values": [
        {
          "bin": [
            20.0,
            45.0
          ],
          "value": 0.9579645991325378,
          "error_low": 0.013935198081327984,
          "error_high": 0.013935198081327984
        },
        {
          "bin": [
            45.0,
            75.0
          ],
          "value": 0.9639448523521423,
          "error_low": 0.013954384552028447,
          "error_high": 0.013954384552028447
        },
        {
          "bin": [
            75.0,
            100.0
          ],
          "value": 1.0032292604446411,
          "error_low": 0.040819128580965675,
          "error_high": 0.040819128580965675
        },
        {
          "bin": [
            100.0,
            500.0
          ],
          "value": 1.0095949172973633,
          "error_low": 0.0491215609104829,
          "error_high": 0.0491215609104829
        }
      ]
    },
    {
      "bin": [
        1.566,
        2.0
      ],
      "values": [
        {
          "bin": [
            20.0,
            45.0
          ],
          "value": 0.9795918464660645,
          "error_low": 0.0026028685623240367,
          "error_high": 0.0026028685623240367
        },
        {
          "bin": [
            45.0,
            75.0
          ],
          "value": 0.982741117477417,
          "error_low": 0.0038678380425920763,
          "error_high": 0.0038678380425920763
        },
        {
          "bin": [
            75.0,
            100.0
          ],
          "value": 0.9969543218612671,
          "error_low": 0.007798117510526513,
          "error_high": 0.007798117510526513
        },
        {
          "bin": [
            100.0,
            500.0
          ],
          "value": 0.9898887872695923,
          "error_low": 0.004849172419931973,
          "error_high": 0.004849172419931973
        }
      ]
    },
    {
      "bin": [
        2.0,
        2.5
      ],
      "values": [
        {
          "bin": [
            20.0,
            45.0
          ],
          "value": 0.9795918464660645,
          "error_low": 0.007579150216755907,
          "error_high": 0.007579150216755907
        },
        {
          "bin": [
            45.0,
            75.0
          ],
          "value": 0.9837398529052734,
          "error_low": 0.0037067769293688633,
          "error_high": 0.0037067769293688633
        },
        {
          "bin": [
            75.0,
            100.0
          ],
          "value": 0.9969512224197388,
          "error_low": 0.015039277019256865,
          "error_high": 0.015039277019256865
        },
        {
          "bin": [
            100.0,
            500.0
          ],
          "value": 0.9899091720581055,
          "error_low": 0.009626026250423273,
          "error_high": 0.009626026250423273
        }
      ]
    }
  ],
  "error_type": "absolute"
}
