{
  "dimension": 2,
  "variables": [
    "AbsEta",
    "Pt"
  ],
  "binning": {
    "x": [
      0.0,
      0.9,
      1.2,
      2.1,
      2.4
    ],
    "y": [
      20.0,
      25.0,
      30.0,
      40.0,
      50.0,
      60.0,
      120.0
    ]
  },
  "data": [
    {
      "bin": [
        "0.00",
        "0.90"
      ],
      "values": [
        {
          "bin": [
            "20.00",
            "25.00"
          ],
          "value": 0.9910777627756951,
          "error_low": 0.0048622057648155656,
          "error_high": 0.0048622057648155656
        },
        {
          "bin": [
            "25.00",
            "30.00"
          ],
          "value": 0.987410468262084,
          "error_low": 0.002342045013213269,
          "error_high": 0.002342045013213269
        },
        {
          "bin": [
            "30.00",
            "40.00"
          ],
          "value": 0.9907753279135898,
          "error_low": 0.0017204821837450894,
          "error_high": 0.0017204821837450894
        },
        {
          "bin": [
            "40.00",
            "50.00"
          ],
          "value": 0.9892483588952047,
          "error_low": 0.0005531182270951159,
          "error_high": 0.0005531182270951159
        },
        {
          "bin": [
            "50.00",
            "60.00"
          ],
          "value": 0.9855545160334763,
          "error_low": 0.0027831334970360353,
          "error_high": 0.0027831334970360353
        },
        {
          "bin": [
            "60.00",
            "120.00"
          ],
          "value": 0.9898057377093389,
          "error_low": 0.003374846909425204,
          "error_high": 0.003374846909425204
        }
      ]
    },
    {
      "bin": [
        "0.90",
        "1.20"
      ],
      "values": [
        {
          "bin": [
            "20.00",
            "25.00"
          ],
          "value": 0.9927389275515244,
          "error_low": 0.05843768030920308,
          "error_high": 0.05843768030920308
        },
        {
          "bin": [
            "25.00",
            "30.00"
          ],
          "value": 0.985063939762512,
          "error_low": 0.02191596958115206,
          "error_high": 0.02191596958115206
        },
        {
          "bin": [
            "30.00",
            "40.00"
          ],
          "value": 0.9865359464182247,
          "error_low": 0.002341066399085052,
          "error_high": 0.002341066399085052
        },
        {
          "bin": [
            "40.00",
            "50.00"
          ],
          "value": 0.984913093101493,
          "error_low": 0.020152005212494533,
          "error_high": 0.020152005212494533
        },
        {
          "bin": [
            "50.00",
            "60.00"
          ],
          "value": 0.9839056384760008,
          "error_low": 0.0016867250419191294,
          "error_high": 0.0016867250419191294
        },
        {
          "bin": [
            "60.00",
            "120.00"
          ],
          "value": 0.984060403143468,
          "error_low": 0.012479926269455575,
          "error_high": 0.012479926269455575
        }
      ]
    },
    {
      "bin": [
        "1.20",
        "2.10"
      ],
      "values": [
        {
          "bin": [
            "20.00",
            "25.00"
          ],
          "value": 0.9924252719877384,
          "error_low": 0.0077960707091530804,
          "error_high": 0.0077960707091530804
        },
        {
          "bin": [
            "25.00",
            "30.00"
          ],
          "value": 0.9890884461284933,
          "error_low": 0.014920827586358413,
          "error_high": 0.014920827586358413
        },
        {
          "bin": [
            "30.00",
            "40.00"
          ],
          "value": 0.9946469069883841,
          "error_low": 0.012663506122572513,
          "error_high": 0.012663506122572513
        },
        {
          "bin": [
            "40.00",
            "50.00"
          ],
          "value": 0.9926528825155183,
          "error_low": 0.009958288435303466,
          "error_high": 0.009958288435303466
        },
        {
          "bin": [
            "50.00",
            "60.00"
          ],
          "value": 0.9906364222943529,
          "error_low": 0.0011273365065624648,
          "error_high": 0.0011273365065624648
        },
        {
          "bin": [
            "60.00",
            "120.00"
          ],
          "value": 0.9920464322143979,
          "error_low": 0.002810510461134572,
          "error_high": 0.002810510461134572
        }
      ]
    },
    {
      "bin": [
        "2.10",
        "2.40"
      ],
      "values": [
        {
          "bin": [
            "20.00",
            "25.00"
          ],
          "value": 0.9758095839531763,
          "error_low": 0.004530497835917951,
          "error_high": 0.004530497835917951
        },
        {
          "bin": [
            "25.00",
            "30.00"
          ],
          "value": 0.9745153594179884,
          "error_low": 0.002981962749264213,
          "error_high": 0.002981962749264213
        },
        {
          "bin": [
            "30.00",
            "40.00"
          ],
          "value": 0.9787410500158746,
          "error_low": 0.0032812773952071725,
          "error_high": 0.0032812773952071725
        },
        {
          "bin": [
            "40.00",
            "50.00"
          ],
          "value": 0.978189122919501,
          "error_low": 0.001989798560730048,
          "error_high": 0.001989798560730048
        },
        {
          "bin": [
            "50.00",
            "60.00"
          ],
          "value": 0.9673568416097894,
          "error_low": 0.0042596330210086875,
          "error_high": 0.0042596330210086875
        },
        {
          "bin": [
            "60.00",
            "120.00"
          ],
          "value": 0.9766311856731202,
          "error_low": 0.009574625561412935,
          "error_high": 0.009574625561412935
        }
      ]
    }
  ],
  "error_type": "absolute"
}