{
  "dimension": 2,
  "variables": [
    "AbsEta",
    "Pt"
  ],
  "binning": {
    "x": [
      0.0,
      0.9,
      1.2,
      2.1,
      2.4
    ],
    "y": [
      20.0,
      25.0,
      30.0,
      40.0,
      50.0,
      60.0,
      120.0
    ]
  },
  "data": [
    {
      "bin": [
        "0.00",
        "0.90"
      ],
      "values": [
        {
          "bin": [
            "20.00",
            "25.00"
          ],
          "value": 0.9913892461286353,
          "error_low": 0.007422989192980976,
          "error_high": 0.007422989192980976
        },
        {
          "bin": [
            "25.00",
            "30.00"
          ],
          "value": 0.991434774563006,
          "error_low": 0.0013850322072574508,
          "error_high": 0.0013850322072574508
        },
        {
          "bin": [
            "30.00",
            "40.00"
          ],
          "value": 0.99137555469275,
          "error_low": 0.001955490173400494,
          "error_high": 0.001955490173400494
        },
        {
          "bin": [
            "40.00",
            "50.00"
          ],
          "value": 0.9914412620030336,
          "error_low": 0.0007994815021302382,
          "error_high": 0.0007994815021302382
        },
        {
          "bin": [
            "50.00",
            "60.00"
          ],
          "value": 0.9916861853024751,
          "error_low": 0.0006478790024994765,
          "error_high": 0.0006478790024994765
        },
        {
          "bin": [
            "60.00",
            "120.00"
          ],
          "value": 0.9905799448514033,
          "error_low": 0.00260197578266456,
          "error_high": 0.00260197578266456
        }
      ]
    },
    {
      "bin": [
        "0.90",
        "1.20"
      ],
      "values": [
        {
          "bin": [
            "20.00",
            "25.00"
          ],
          "value": 0.985987369423937,
          "error_low": 0.006915645505735044,
          "error_high": 0.006915645505735044
        },
        {
          "bin": [
            "25.00",
            "30.00"
          ],
          "value": 0.983987818122965,
          "error_low": 0.002156646047264982,
          "error_high": 0.002156646047264982
        },
        {
          "bin": [
            "30.00",
            "40.00"
          ],
          "value": 0.983823809537526,
          "error_low": 0.0027218649152928255,
          "error_high": 0.0027218649152928255
        },
        {
          "bin": [
            "40.00",
            "50.00"
          ],
          "value": 0.9842166496308641,
          "error_low": 0.0008127334388068567,
          "error_high": 0.0008127334388068567
        },
        {
          "bin": [
            "50.00",
            "60.00"
          ],
          "value": 0.9830003119378048,
          "error_low": 0.0014519685894847508,
          "error_high": 0.0014519685894847508
        },
        {
          "bin": [
            "60.00",
            "120.00"
          ],
          "value": 0.9816888807775153,
          "error_low": 0.0025718854045496133,
          "error_high": 0.0025718854045496133
        }
      ]
    },
    {
      "bin": [
        "1.20",
        "2.10"
      ],
      "values": [
        {
          "bin": [
            "20.00",
            "25.00"
          ],
          "value": 0.991472765372932,
          "error_low": 0.006162521334086441,
          "error_high": 0.006162521334086441
        },
        {
          "bin": [
            "25.00",
            "30.00"
          ],
          "value": 0.991184702552688,
          "error_low": 0.002709857664057379,
          "error_high": 0.002709857664057379
        },
        {
          "bin": [
            "30.00",
            "40.00"
          ],
          "value": 0.9907979966866818,
          "error_low": 0.001138584141419202,
          "error_high": 0.001138584141419202
        },
        {
          "bin": [
            "40.00",
            "50.00"
          ],
          "value": 0.98999331286624,
          "error_low": 0.0009250287056643176,
          "error_high": 0.0009250287056643176
        },
        {
          "bin": [
            "50.00",
            "60.00"
          ],
          "value": 0.9907796746368196,
          "error_low": 0.0010436038575012034,
          "error_high": 0.0010436038575012034
        },
        {
          "bin": [
            "60.00",
            "120.00"
          ],
          "value": 0.9886366722532979,
          "error_low": 0.0008427015755609763,
          "error_high": 0.0008427015755609763
        }
      ]
    },
    {
      "bin": [
        "2.10",
        "2.40"
      ],
      "values": [
        {
          "bin": [
            "20.00",
            "25.00"
          ],
          "value": 0.9762336613870103,
          "error_low": 0.010252704774599896,
          "error_high": 0.010252704774599896
        },
        {
          "bin": [
            "25.00",
            "30.00"
          ],
          "value": 0.9735941110201962,
          "error_low": 0.0013189363130872856,
          "error_high": 0.0013189363130872856
        },
        {
          "bin": [
            "30.00",
            "40.00"
          ],
          "value": 0.973964994647057,
          "error_low": 0.002176843212660153,
          "error_high": 0.002176843212660153
        },
        {
          "bin": [
            "40.00",
            "50.00"
          ],
          "value": 0.9738877279555861,
          "error_low": 0.0016427987797572278,
          "error_high": 0.0016427987797572278
        },
        {
          "bin": [
            "50.00",
            "60.00"
          ],
          "value": 0.9737076412350453,
          "error_low": 0.0031515118190962943,
          "error_high": 0.0031515118190962943
        },
        {
          "bin": [
            "60.00",
            "120.00"
          ],
          "value": 0.9677501192438909,
          "error_low": 0.005727141008023997,
          "error_high": 0.005727141008023997
        }
      ]
    }
  ],
  "error_type": "absolute"
}